Inlämningsuppgift 1
…
Visualisera förändringen i åldersfördelning i den svenska befolkningen under perioden 1860- 2023 med ggplot och datamaterialet population_1860_2023. Ni väljer själva hur ni på ett bra sätt ska visualisera utvecklingen.

upp3data <-
  population_1860_2023 %>%
  group_by(year,age) %>%
  drop_na() %>%
  summarize(count = sum(count)) %>%
  mutate(freq = count / sum(count))

`summarise()` has grouped output by 'year'. You can override using the
`.groups` argument.

upp3data

# A tibble: 1,640 × 4
# Groups:   year [164]
   year  age    count     freq
   <chr> <chr>  <dbl>    <dbl>
 1 1860  0-9   921411 0.239   
 2 1860  10-19 725609 0.188   
 3 1860  20-29 619788 0.161   
 4 1860  30-39 568060 0.147   
 5 1860  40-49 421105 0.109   
 6 1860  50-59 286178 0.0741  
 7 1860  60-69 209108 0.0542  
 8 1860  70-79  88602 0.0230  
 9 1860  80-89  18478 0.00479 
10 1860  90+     1389 0.000360
# ℹ 1,630 more rows
…
